"messageSetId","productId","messageSetName","messageSetDescription","externalId","messageAlgorithmId","messageAlgorithmAccuracy","defaultToRotatingSelector","createdAt","updatedAt","repActionChannelId"
"2001",1001,"unit-test-chantix-1","include msg a3RA00000001MtAMAU, a3RA0000000e47gMAA, a3RA0000000e486MAA (703,49,10)","1fa5c615-e3ba-ec6a-d032-628632dbd73","23",0,1,"2015-11-15 02:40:20","2018-07-11 22:12:16",1
"2002",1001,"unit-test-chantix-2","include msg a3RA00000001MtAMAU (703)","04c398ff-78e1-a0c5-13e7-e37df32f96c",NA,0,1,"2015-11-15 02:41:34","2018-04-10 05:48:10",1
"2003",1001,"unit-test-chantix-1-copy1","include msg a3RA00000001MtAMAU, a3RA0000000e47gMAA, a3RA0000000e486MAA (703,49,10)","12607bdf-b40d-7c5e-d099-94a5510be62","23",0,1,"2016-08-02 19:25:18","2018-07-11 22:12:21",1
"2004",1001,"unit-test-chantix-1-copy2","include msg a3RA00000001MtAMAU, a3RA0000000e47gMAA, a3RA0000000e486MAA (703,49,10)","910d7849-5850-781f-de44-0b1611b0704","25",0,1,"2016-08-02 19:29:56","2018-02-10 21:36:42",1
